<?xml version="1.0" encoding="utf-8"?>
<!-- Generator: Adobe Illustrator 19.2.1, SVG Export Plug-In . SVG Version: 6.00 Build 0)  -->
<svg version="1.1" class="icon icon-map-pointer" width="32px" height="44px" xmlns="http://www.w3.org/2000/svg" xmlns:xlink="http://www.w3.org/1999/xlink" x="0px" y="0px" viewBox="0 0 74 100.9" style="enable-background:new 0 0 74 100.9;" xml:space="preserve">
<path fill="#A2CF3B" stroke="none" d="M37,100.9C24.1,95.1,0,66.3,0,37C0,16.6,16.5,0,37,0c20.4,0,37,16.5,37,37C73.9,66.3,49.9,95.1,37,100.9z"/>
<path fill="#FFFFFF" stroke="none" d="M55.2,13.6L44.7,34c0.1,0,0.1,0,0.2,0.1c0.4,0.1,0.9,0.3,1.3,0.5c0.5,0.2,0.9,0.5,1.3,0.9L57.9,15 c0.4-0.8,0.1-1.7-0.7-2.1C56.5,12.6,55.6,12.9,55.2,13.6z"/>
<path fill="#FFFFFF" stroke="none" d="M20.4,51.5c1.7,1.5,3.7,2.8,6.1,3.9c4,1.8,7.6,2.4,7.7,2.4l0,0h0.1l0,0c4.2-0.1,7.5-1.5,9.8-4.2 c3-3.5,4.1-8.7,3.9-13.2c-0.1-1.3-0.5-2.6-1.4-3.5c-0.1-0.1-0.1-0.1-0.2-0.2c-0.3-0.3-0.7-0.5-1-0.7s-0.7-0.3-1-0.4 c-0.1,0-0.3-0.1-0.4-0.1c-0.2,0-0.4-0.1-0.6-0.1c-1.5,0-2.9,0.9-4,1.9s-2.3,2.1-3.5,2.9c-1.4,0.9-2.9,1.4-4.5,1.8 c-2.1,0.6-4.2,1-6.3,1.2c-1.9,0.2-3.8,0.3-5.7,0.3c-0.8,0-1.5,0-2.3-0.1H17c0,0,0,0-0.1,0c-0.3,0-0.6,0.1-0.8,0.4 c-0.2,0.3-0.3,0.6-0.2,1C16.8,47.3,18.3,49.6,20.4,51.5z M18.9,45.6L18.9,45.6c0.1,0,0.2,0,0.3,0c1.5,0,3.7-0.1,6.1-0.3 c5.1-0.6,9.2-1.8,12.4-3.7c0.1-0.1,0.2-0.1,0.3-0.1s0.2,0,0.3,0.1c1.8,1,4.7,2.5,6.7,3.2c0.3,0.1,0.4,0.3,0.4,0.6 c-0.2,2.1-0.9,4.8-2.7,6.9c-1.8,2.1-4.6,3.3-8.1,3.4l0,0h-0.1c-0.4-0.1-1.2-0.2-2.4-0.6c0.3-0.1,0.7-0.3,1-0.5s0.6-0.4,0.9-0.6 c1-0.6,1.9-1.3,2.6-1.9c0.2-0.1,0-0.4-0.2-0.3c-1.6,0.7-3.6,1.1-5.5,1.4c-0.6,0.1-1.1,0.2-1.6,0.2c-0.6,0.1-1.1,0.1-1.6,0.2 c-0.1-0.1-0.2-0.1-0.4-0.2c-1-0.5-2-1-2.8-1.5c0.4,0,0.8-0.1,1.2-0.2c0.4-0.1,0.7-0.2,1.1-0.3c1.1-0.3,2.1-0.7,2.8-0.9 c0.1-0.1,0.1-0.3-0.1-0.2c-1.3,0.1-3.1,0.1-4.6,0.1c-0.5,0-1,0-1.4,0c-0.5,0-1,0-1.3,0c-0.2-0.1-0.3-0.3-0.5-0.4 c-0.2-0.2-0.4-0.4-0.6-0.6c0.3,0,0.6-0.1,1-0.1c0.3-0.1,0.6-0.1,0.9-0.2c1.2-0.3,2.4-0.7,3.2-1c0.1-0.1,0.1-0.3-0.1-0.2 C24.9,48,23.2,48,21.8,48c-0.4,0-0.7,0-1,0c-0.4,0-0.7,0-1,0c-0.4-0.6-0.8-1.1-1.1-1.8C18.6,45.8,18.7,45.6,18.9,45.6z"/>
<circle fill="#FFFFFF" stroke="none" cx="52.7" cy="50.9" r="2.5"/>
<circle fill="#FFFFFF" stroke="none" cx="47.3" cy="56.5" r="1.2"/>
<circle fill="#FFFFFF" stroke="none" cx="54.1" cy="56.3" r="1.2"/>
</svg>
