<?xml version="1.0" encoding="utf-8"?>
<!-- Generator: Adobe Illustrator 19.2.1, SVG Export Plug-In . SVG Version: 6.00 Build 0)  -->
<svg version="1.1" class="icon icon-map-pointer" width="32px" height="44px" xmlns="http://www.w3.org/2000/svg" xmlns:xlink="http://www.w3.org/1999/xlink" x="0px" y="0px" viewBox="0 0 230.2 314" style="enable-background:new 0 0 230.2 314;" xml:space="preserve">
<path fill="#FCB53A" stroke="none" d="M115.1,314C75,296.1,0,206.5,0,115.1C0,51.5,51.5,0,115.1,0s115.1,51.5,115.1,115.1 C230.2,206.5,155.2,296.1,115.1,314z"/>
<path fill="#FFFFFF" stroke="none" d="M145.1,117c-0.2-3-2.8-5.4-5.8-5.4l-19.6-0.3c-1.1,0-2.3-1-2.5-2.1l-4.3-27.5c-0.2-1-1.1-5-6.1-5l-24.4,1.1 c-3.2,0.1-5.8,1.7-5.8,6.1c0,0-0.1,61-0.2,63.2l-0.9,15.1c-0.1,2-0.9,5.3-1.7,7.1l-9.9,22.3c-0.7,1.5-0.6,3.1,0,4.5 c0.7,1.4,2,2.4,3.5,2.8l3.3,0.8c0.5,0.1,1,0.2,1.5,0.2c2.7,0,5.2-1.5,6.3-3.8l9.4-19.1c1-2.1,2.3-5.7,2.9-8l5.3-22l12.8,19.6 c1.1,1.6,2.2,4.7,2.4,6.6l2.5,21.9c0.4,3.1,3.2,5.7,6.3,5.7h3.7c1.6,0,3.1-0.6,4.1-1.8c1-1.2,1.5-2.7,1.4-4.3l-2.6-26.1 c-0.2-2.4-1.1-6.1-2-8.3l-11.5-30l-0.1-6.3l26.7-1c1.5-0.1,2.8-0.7,3.8-1.8C144.8,120,145.3,118.5,145.1,117L145.1,117z  M120.2,198.8L120.2,198.8L120.2,198.8L120.2,198.8z"/>
<path fill="#FFFFFF" stroke="none" d="M90.2,70.8c2.1,0,4.1-0.3,6-1c4.6-1.6,8.2-4.9,10.3-9.3c1.5-3.1,2-6.4,1.7-9.7l6.1-0.7c2.1-0.2,4.3-1.9,5-3.9 l2-5.5c0.4-1.2,0.3-2.4-0.3-3.3s-1.7-1.4-2.9-1.4c-0.1,0-0.3,0-0.4,0l-17.5,1.7c-2.9-1.9-6.3-3-9.9-3c-2.1,0-4.1,0.3-6,1 c-4.6,1.6-8.2,4.9-10.3,9.3s-2.3,9.3-0.7,13.8C75.7,66,82.6,70.8,90.2,70.8z"/>
<path fill="#FFFFFF" stroke="none" d="M166.7,99.1l-1.7-25c-0.2-3-2.8-5.4-5.8-5.4l-33.5,0.1c-1.5,0-2.9,0.6-3.9,1.7c-1,1.1-1.5,2.5-1.4,4l1.7,25 c0.2,3,2.8,5.4,5.8,5.4l33.5-0.1c1.5,0,2.9-0.6,3.9-1.7C166.4,102,166.9,100.6,166.7,99.1z M128,103L128,103L128,103L128,103z"/>
</svg>
